{
	"title": "Widget property schema",
	"description": "Each JSON property of the document defines a single widget GObject property value.",
	"type": "object",
	"additionalProperties": {
		"description": "Each JSON property of the widget object must specify a valid GObject property name.",
		"type": "object",
		"patternProperties": {
			"[a-zA-Z][a-zA-Z0-9-_]*": {
				"description": "See g_param_spec_internal() for the naming scheme. There must be exactly one JSON property of the property object, mapping a GType name to a value.",
				"type": "object",
				"minProperties": 1,
				"maxProperties": 1,
				"properties": {
					"gfloat": { "type": "number" },
					"gdouble": { "type": "number" },
					"gboolean": { "type": "boolean" },
					"gint": { "type": "integer" },
					"guint": {
						"type": "integer",
						"minimum": 0
					},
					"gint64": { "type": "integer" },
					"guint64": {
						"type": "integer",
						"minimum": 0
					},
					"gchararray": { "type": "string" }
				},
				"patternProperties": {
					"[a-zA-Z_][a-zA-Z0-9-_\\+][a-zA-Z0-9-_\\+]+": {
						"description": "See GType for the naming scheme.",
						"type": [
							"boolean",
							"integer",
							"number",
							"null",
							"string"
						]
					}
				},
				"additionalProperties": false
			}
		},
		"additionalProperties": false
	},
	"minProperties": 1
}
